64 3
0 0 255 
0 127 0 
255 0 0 
0 191 191 
191 0 191 
191 191 0 
63 63 63 
0 0 255 
0 127 0 
255 0 0 
0 191 191 
191 0 191 
191 191 0 
63 63 63 
0 0 255 
0 127 0 
255 0 0 
0 191 191 
191 0 191 
191 191 0 
63 63 63 
0 0 255 
0 127 0 
255 0 0 
0 191 191 
191 0 191 
191 191 0 
63 63 63 
0 0 255 
0 127 0 
255 0 0 
0 191 191 
191 0 191 
191 191 0 
63 63 63 
0 0 255 
0 127 0 
255 0 0 
0 191 191 
191 0 191 
191 191 0 
63 63 63 
0 0 255 
0 127 0 
255 0 0 
0 191 191 
191 0 191 
191 191 0 
63 63 63 
0 0 255 
0 127 0 
255 0 0 
0 191 191 
191 0 191 
191 191 0 
63 63 63 
0 0 255 
0 127 0 
255 0 0 
0 191 191 
191 0 191 
191 191 0 
63 63 63 
0 0 255 
