16 3
0 255 255 
17 238 255 
34 221 255 
51 204 255 
68 187 255 
85 170 255 
102 153 255 
119 136 255 
136 119 255 
153 102 255 
170 85 255 
187 68 255 
204 50 255 
221 33 255 
238 16 255 
255 0 255 
