64 3
10 0 0 
21 0 0 
31 0 0 
42 0 0 
53 0 0 
63 0 0 
74 0 0 
85 0 0 
95 0 0 
106 0 0 
116 0 0 
127 0 0 
138 0 0 
148 0 0 
159 0 0 
170 0 0 
180 0 0 
191 0 0 
201 0 0 
212 0 0 
223 0 0 
233 0 0 
244 0 0 
255 0 0 
255 10 0 
255 21 0 
255 31 0 
255 42 0 
255 53 0 
255 63 0 
255 74 0 
255 85 0 
255 95 0 
255 106 0 
255 116 0 
255 127 0 
255 138 0 
255 148 0 
255 159 0 
255 170 0 
255 180 0 
255 191 0 
255 201 0 
255 212 0 
255 223 0 
255 233 0 
255 244 0 
255 255 0 
255 255 15 
255 255 31 
255 255 47 
255 255 63 
255 255 79 
255 255 95 
255 255 111 
255 255 127 
255 255 143 
255 255 159 
255 255 175 
255 255 191 
255 255 207 
255 255 223 
255 255 239 
255 255 255 
